<?xml version="1.0" encoding="utf-8"?>
<!-- Generator: Adobe Illustrator 19.0.0, SVG Export Plug-In . SVG Version: 6.00 Build 0)  -->
<svg version="1.1" id="Ebene_2" xmlns="http://www.w3.org/2000/svg" xmlns:xlink="http://www.w3.org/1999/xlink" x="0px" y="0px"
	 viewBox="-316 390.2 146.5 148.3" style="enable-background:new -316 390.2 146.5 148.3;" xml:space="preserve">
<g>
	<path d="M-183.5,427.7C-183.5,427.7-183.4,427.7-183.5,427.7c0.1,0,0.1,0,0.1-0.1l-0.1-0.6L-183.5,427.7
		C-183.5,427.6-183.5,427.6-183.5,427.7z"/>
	<polygon points="-183.4,427.6 -183.4,427.6 -183.4,427.6 	"/>
	<path d="M-311.9,483.1C-311.9,483.1-311.9,483.1-311.9,483.1C-311.9,483.1-311.9,483.1-311.9,483.1
		C-311.9,483.1-311.9,483.1-311.9,483.1l0.2,0L-311.9,483.1z"/>
	<polygon points="-311.9,483.1 -311.9,483.1 -311.9,483.1 	"/>
	<path d="M-172,471.2c-0.6-0.8-1.9-1.1-3.1-0.8l0,0c0,0-0.3,0.1-0.8,0.2c-0.2,0.1-0.5,0.1-0.8,0.2c-0.1-0.4-0.4-0.8-0.7-1.1l0,0
		l-5.5-4.4c0.1,0,0.1,0,0.2,0.1c1.3,0.7,2.6,1.7,3.6,2.4c1,0.7,1.7,1.2,1.7,1.2c0.2,0.1,0.6,0.4,0.9,0.4c1,0.2,1.8-0.2,1.8-1.1
		c0-0.3-0.1-0.6-0.3-0.9c0.2,0.1,0.4,0.1,0.6,0.1c1.4,0.1,2.2-0.7,2-1.8c-0.1-0.4-0.3-0.7-0.5-1c0,0,0-0.1,0.1-0.1
		c0.4-0.7,0.2-2-0.5-2.8l0,0c0,0-0.7-0.8-1.8-2c-0.1-0.1-0.2-0.2-0.3-0.3c0.7-0.7,0.8-1.7,0.2-2.4c1,0,1.7-0.6,1.7-1.6
		c-0.1-0.5-0.4-1-0.9-1.3c0.1,0,0.2-0.1,0.4-0.1c0.2,0,0.4-0.1,0.6-0.2c0.2-0.1,0.4-0.3,0.5-0.6c0.1-0.3,0.1-0.6,0-0.9
		c-0.1-0.4-0.4-0.7-0.7-0.9c-0.3-0.2-0.6-0.4-0.9-0.5c0.2,0,0.4-0.1,0.6-0.1c1.3-0.5,1.8-1.6,1.2-2.5c-0.5-0.8-1.6-1.2-2.8-1l0,0
		c0,0-3.2,0.5-6.9,0.9c0,0,0.1,0,0.1,0c2.3-0.8,3.7-1.6,3.7-1.6c0.4-0.2,1.1-0.7,1.6-1.3c1.3-1.6,0.9-3.3-0.6-3.8
		c-1.2-0.5-2.7-0.1-3.8,0.8l0,0c0,0-0.2,0.1-0.5,0.4c0.2-0.3,0.2-0.7,0.1-1c0.2,0,0.3-0.1,0.3-0.1c0.2,0,0.6-0.2,0.9-0.4
		c0.8-0.6,0.9-1.4,0.3-1.9c-0.2-0.2-0.5-0.3-0.9-0.3c0.7-0.7,1.1-1.1,1.1-1.1c0.2-0.2,0.7-0.8,0.9-1.3c0.3-0.8,0.3-1.5,0-2
		c-0.3-0.5-0.8-0.8-1.4-0.8c-1,0-2,0.5-2.7,1.6l0,0c0,0-0.7,1-1.6,2.5c-0.1,0.1-0.1,0.2-0.2,0.3c0.3-1.2-0.3-2.2-1.4-2.4
		c-0.2,0-0.4,0-0.6,0c1.9-0.5,3.2-0.9,3.2-0.9c0.3-0.1,0.9-0.4,1.3-0.7c1.2-1,1.2-2.4,0.2-3.1c-0.3-0.2-0.7-0.3-1.1-0.4
		c0.1-0.4,0-0.8-0.3-1.1c-0.3-0.4-0.7-0.7-1.2-0.9c0,0,0.1,0,0.1,0c1.4-0.6,1.7-1.9,1-2.8c-0.5-0.6-1.6-0.9-2.5-0.8
		c0.2-0.3,0.4-0.5,0.4-0.8c0.1-0.5,0-0.9-0.2-1.2c-0.2-0.3-0.5-0.5-0.8-0.6c-0.2-0.1-0.5-0.1-0.8-0.1c-0.2,0-0.4-0.1-0.6-0.1
		c-0.2-0.1-0.3-0.1-0.5-0.2c-0.5,0-1.1,0.3-1.6,0.6l0,0c0,0-0.2,0.2-0.7,0.5c-0.4,0.3-1.1,0.7-1.9,1.1c0,0,0,0,0,0
		c-0.1-0.1-0.3-0.2-0.4-0.3c-0.7-0.2-1.4-0.1-1.9,0.4l0,0c0,0-0.5,0.5-1.4,1.2c-0.2,0.1-0.3,0.2-0.5,0.4c0,0,0,0,0,0
		c0.2-0.2,0.4-0.4,0.5-0.6c0.1-0.2,0.3-0.5,0.5-0.9l4.4-1.9c0.3-0.1,0.8-0.4,1.1-0.7c1-1,0.9-2.2,0-2.8c-0.8-0.5-2-0.3-2.9,0.3l0,0
		l-4.5,3.1c0,0-0.1,0-0.1,0c1.2-1,2.3-2,3.1-2.9c1.3-1.5,2-2.8,2-2.8c0.2-0.3,0.5-1.1,0.5-1.7c0-0.9-0.3-1.6-0.7-1.9
		c-0.4-0.4-1-0.4-1.6-0.2c-1,0.3-1.7,1.2-2,2.2l0,0c0,0-0.3,1-1,2.5c-0.6,1.2-1.7,2.6-2.9,4.1c0.1-0.1,0.1-0.2,0.1-0.2
		c0.1-0.2,0.3-0.9,0.3-1.4c0-0.2,0-0.4-0.1-0.6c1.3-1.8,2.3-3.4,2.3-3.4c0.1-0.1,0.2-0.5,0.3-0.7c0.1-0.6-0.1-1-0.5-1.2c0,0,0,0,0,0
		c0.4-0.6,0.5-1,0.5-1c0.2-0.3,0.5-1.3,0.5-2c0-1-0.4-1.8-0.9-2.2c-0.5-0.4-1.2-0.4-1.8-0.1c-1,0.5-1.8,1.4-2.1,2.5l0,0
		c0,0-0.2,1.1-1.1,2.8c-0.5,0.9-1.2,2-2.1,3.1c-0.1-0.1-0.1-0.3-0.2-0.4c0.1-0.3,0.2-0.7,0.2-1.1c0-0.1,0-0.1,0-0.2
		c0.2-0.4,0.3-0.7,0.5-1.1c0.9-2.1,1.7-4.2,1.7-4.2c0.1-0.1,0.1-0.4,0.1-0.7c0-0.7-0.5-1.1-1-1c0,0,0,0,0,0c0-0.6,0-1,0-1
		c0-0.3-0.1-0.9-0.3-1.3c-0.6-1.3-1.7-1.6-2.4-0.9c-0.6,0.5-0.9,1.6-0.7,2.5l0,0c0,0,0.2,0.8,0.3,2c-0.6-0.8-1.5-1.1-2.4-0.8
		c0,0-0.1,0-0.1,0.1c0.6-1.3,1-2.2,1-2.2c0.1-0.3,0.3-0.9,0.3-1.4l0-0.1l0-0.1c0,0,0-0.1-0.1-0.1c0-0.1-0.1-0.2-0.2-0.2
		c-0.1-0.2-0.2-0.4-0.2-0.6c-0.1-0.2-0.1-0.4-0.3-0.6c-0.2-0.2-0.4-0.5-0.7-0.5c-0.3-0.1-0.6,0-1,0.2c-0.4,0.2-0.6,0.5-0.9,0.9
		c-0.4,0.5-0.6,1-0.7,1.6l0,0c0,0-0.4,1.9-1,4.5c0.3-1.5,0.4-2.5,0.4-2.5c0.1-0.3,0.1-1-0.1-1.5c0,0,0-0.1,0-0.1
		c-0.1-0.4-0.2-0.7-0.4-1c0.1-0.4,0.2-0.6,0.2-0.6c0.1-0.3,0.2-0.9,0.2-1.5c-0.2-1.5-1.2-2.2-2.3-1.8c-0.3,0.1-0.7,0.4-0.9,0.7
		c0.4-1.1,0.1-2.2-0.9-2.6c-1-0.5-2.7,0-3.8,1.1l0,0c0,0-0.2,0.3-0.7,0.8c-0.1,0.1-0.1,0.2-0.2,0.3c0.1-0.4,0-0.8,0.2-1.3
		c0.1-0.5,0.3-1.2-0.2-1.7c-0.4-0.5-1.5-0.6-2.3-0.2c-0.9,0.4-1.6,1.1-1.9,1.9l0,0c0,0-0.2,0.4-0.4,1c-0.2,0.6-0.5,1.4-0.7,2.4
		c-0.1,0.5-0.3,1.1-0.4,1.7c0.1-1.2,0.1-2.3,0-3.2c0-1.1-0.2-2-0.2-2.6c-0.1-0.6-0.2-1-0.2-1c0-0.4-0.3-1.2-0.7-1.7
		c-1.1-1.5-2.6-1.6-3.4-0.5c-0.2,0.2-0.3,0.5-0.4,0.7c-0.1-0.4-0.4-0.9-0.7-1.2c-0.6-0.7-1.3-0.9-1.8-0.8c-0.5,0.1-0.9,0.5-1.1,1
		c-0.1,0.4-0.2,0.7-0.2,1.1c-0.1-0.2-0.2-0.4-0.4-0.5c-0.1-0.4-0.1-0.6-0.1-0.6c0-0.3-0.3-0.8-0.5-1.2c-0.8-1.1-2-1.2-2.6-0.4
		c-0.6,0.7-0.6,1.8-0.2,2.8l0,0c0,0,0.3,0.7,0.8,1.8c0,0.2-0.1,0.6-0.2,1.1c-0.1-0.3-0.1-0.5-0.1-0.5c0-0.2-0.2-0.7-0.5-1
		c-0.7-0.9-1.8-1-2.5-0.3c-0.6,0.6-0.7,1.6-0.3,2.4l0,0c0,0,0.6,1.2,1.3,2.9c0,0.4,0,1-0.1,1.8c-0.2-0.1-0.4-0.3-0.6-0.3
		c-0.1-0.2-0.1-0.5-0.3-0.7c-0.1-0.2-0.2-0.3-0.3-0.5c-0.2-1.3-0.5-2.6-0.8-3.6c0.2-0.6,0.4-1,0.4-1c0.1-0.3,0.3-0.9,0.3-1.4
		c0-1.5-0.9-2.5-2.2-2.2c-0.2,0.1-0.5,0.2-0.7,0.3c-0.2-0.2-0.5-0.5-0.8-0.6c-0.9-0.5-1.7-0.5-2.2-0.2c-0.5,0.3-0.8,0.8-0.9,1.4
		c-0.1,1,0.3,2,1,2.8l0,0c0,0,0.5,0.5,1.2,1.4c0,0.2,0,0.4-0.1,0.6c-0.1,0.8-0.2,1.6-0.2,2.5c-0.2-1-0.4-1.7-0.4-1.7
		c0-0.2-0.2-0.7-0.5-1c-0.4-0.5-0.8-0.7-1.3-0.8c0-0.2,0-0.4,0-0.6c0-1.9,0.1-3.1,0.1-3.1c0-0.3,0-1-0.2-1.5
		c-0.5-1.5-1.7-2.3-2.9-1.7c-1,0.5-1.6,1.9-1.4,3.3l0,0c0,0,0.2,1.4,0.6,3.3c0,0.1,0.1,0.2,0.1,0.4c-0.1-0.1-0.2-0.2-0.3-0.2
		c-0.3-0.1-0.5-0.1-0.7,0c-0.1,0.1-0.2,0.1-0.3,0.2c0.1-0.9,0.2-1.5,0.2-1.5c0.1-0.3,0.1-1,0-1.6c-0.1-0.2-0.3-0.3-0.4-0.5
		c-0.1-0.2-0.3-0.4-0.4-0.6c-0.1-0.2-0.2-0.4-0.4-0.6c-0.2-0.2-0.5-0.5-0.9-0.5c-0.3,0-0.7,0.1-1,0.3c-0.3,0.3-0.6,0.7-0.8,1.2
		c-0.1,0.2-0.1,0.3-0.2,0.5c-1.1-0.5-2.2-0.1-2.6,0.9c-0.4,1-0.1,2.4,0.7,3.3l0,0c0,0,0.8,0.9,1.9,2.5c0.1,0.2,0.2,0.3,0.3,0.5
		c0.1,0.5,0.2,1.1,0.3,1.6c-0.2-0.1-0.4-0.2-0.6-0.2c-0.2-0.9-0.4-1.5-0.4-1.5c0-0.2-0.2-0.6-0.5-0.9c-0.2-0.2-0.3-0.3-0.5-0.3
		c-0.2,0-0.3-0.1-0.5-0.2c-0.2-0.1-0.4-0.2-0.7-0.2c-0.1-1-0.1-1.6-0.1-1.6c0-0.3-0.1-1.1-0.4-1.6c-0.7-1.5-2.1-2.1-3.2-1.3
		c-0.9,0.7-1.4,2.2-1,3.6l0,0c0,0,0.3,1.4,1,3.4c0.1,0.2,0.1,0.5,0.2,0.7c-0.6-0.8-1.2-1.5-1.8-2c-1.2-1.2-2-2-2-2
		c-0.2-0.2-0.8-0.6-1.2-0.7c-1.4-0.4-2.4,0.2-2.5,1.3c0,0.9,0.6,1.9,1.5,2.4l0,0c0,0,0.3,0.2,0.8,0.5c0,0-0.1,0-0.1,0
		c-0.3,0.2-0.4,0.5-0.5,0.9c-1.3-1.1-2.2-1.8-2.2-1.8c-0.2-0.2-0.8-0.5-1.2-0.7c-1.4-0.4-2.5,0.3-2.5,1.4c0,0.6,0.2,1.2,0.7,1.7
		c-0.2-0.1-0.3-0.2-0.3-0.2c-0.2-0.2-0.9-0.4-1.4-0.5c-0.8-0.1-1.5,0.3-1.7,0.7c-0.1,0.1-0.1,0.2-0.1,0.3c-0.7-0.7-1.2-1.2-1.2-1.2
		c-0.2-0.2-0.7-0.6-1.3-0.8c-0.8-0.3-1.7-0.2-2.1,0.2c-0.4,0.4-0.3,0.9-0.2,1.4c0.1,0.4,0.1,0.8,0.3,1.1c0.2,0.3,0.6,0.8,1,1l0,0
		c0,0,0.3,0.2,0.8,0.5c-0.1,0-0.2,0-0.3,0.1c-0.4,0.1-0.4,0.4-0.3,0.6c0.1,0.1,0.1,0.1,0.1,0.1c0,0,0,0.1-0.1,0.2
		c0,0.1-0.1,0.3-0.2,0.3c-0.7,0.4-0.1,0.1-0.3,0.2l0,0l0,0l0,0c0,0.1,0,0.1,0,0.2c0,0.1,0,0.2,0,0.3c0.1,0.5,0.2,0.9,0.5,1.3l0,0
		l1,1.4c-0.9-0.2-1.8,0.1-2.2,1c0,0.1-0.1,0.2-0.1,0.3c-0.6-1.3-0.8-2.1-0.8-2.1c0-0.2-0.2-0.7-0.5-1c-0.3-0.4-0.7-0.8-1.2-1
		c-0.4-0.2-1-0.2-1.4,0.1c-0.4,0.3-0.7,0.8-0.7,1.4c-0.1,0.6,0.1,1.3,0.4,1.9l0,0c0,0,0.6,1.1,1.7,2.5c0.4,0.6,0.9,1.2,1.5,1.9
		c-0.8-0.6-1.7-1.1-2.4-1.5c-1.7-0.8-3-1.1-3-1.1c-0.3-0.1-1.1-0.2-1.6,0c-0.8,0.2-1.3,0.6-1.6,1.1c-0.2,0.5-0.1,1,0.2,1.5
		c0.5,0.7,1.4,1.2,2.4,1.2l0,0c0,0,0.2,0,0.7,0c0.4,0,1,0.1,1.8,0.3c0.5,0.1,1.2,0.4,1.8,0.6c-0.1,0.1-0.3,0.2-0.4,0.4
		c-0.4,0.6-0.2,1.6,0.4,2.3l0,0c0,0,0.4,0.5,1,1.1c-0.1,0-0.2,0-0.4,0.1c0,0-0.1,0.1-0.1,0.1c-1.4-1.3-2.9-2.5-4.3-3.2
		c-1.3-0.8-2.4-1.1-2.4-1.1c-0.2-0.1-0.9-0.2-1.4-0.1c-0.7,0.1-1.1,0.5-1.3,0.9c-0.1,0.1-0.1,0.2-0.1,0.4c-0.1-0.1-0.3-0.2-0.4-0.3
		c-1.1-0.5-2-0.1-2.1,0.8c-0.1,0.7,0.3,1.6,1.1,2.1c-0.6,0-1,0.3-1.2,0.6c-0.2,0.4-0.1,0.9,0.1,1.3c0.3,0.7,0.4,1.2,1.2,1.6l0,0
		c0,0,0.2,0.1,0.5,0.3c0.4,0.2,0.9,0.6,1.5,1c0.2,0.1,0.4,0.3,0.6,0.4c-0.1,0-0.1,0-0.2,0c-0.1,0-0.1,0-0.1,0l-0.2-0.1
		c-0.1-0.1-0.3-0.1-0.4,0c-0.7-0.3-1.3-0.6-1.8-0.8c-1-0.5-1.6-0.8-1.6-0.8c-0.1-0.1-0.5-0.2-0.8-0.3c-0.8-0.1-1.5,0.2-1.6,1
		c0,0.5,0.4,1.1,1,1.4c-0.2,0.1-0.4,0.3-0.5,0.6c-0.3,0.7,0,1.7,0.7,2.4l0,0c0,0,0.7,0.7,1.7,1.6c0.6,0.5,1.3,1.1,2.1,1.7
		c0.1,0.2,0.3,0.3,0.4,0.4l0,0c0,0,0.2,0.2,0.6,0.5c-0.4,0-0.7,0.1-0.8,0.3c-1.7-1.7-2.9-3-2.9-3c-0.2-0.2-0.6-0.6-1-0.7
		c-1.2-0.5-2.2-0.1-2.4,0.9c-0.1,0.5,0.1,1.1,0.4,1.6c-0.1,0-0.3-0.1-0.4-0.1c-0.2-0.1-0.4-0.1-0.7-0.2c-0.3,0-0.6,0-0.8,0.3
		c-0.2,0.2-0.4,0.5-0.4,0.8c-0.1,0.4,0,0.8,0.1,1.2c0.1,0.5,0.4,1,0.8,1.4c-0.7-0.2-1.1-0.3-1.1-0.3c-0.2-0.1-0.8-0.2-1.4-0.1
		c-0.8,0.1-1.5,0.7-1.5,1.2c-0.1,0.5,0.3,0.8,0.6,1.2c0.3,0.3,0.4,0.5,0.7,0.7c0.3,0.2,0.7,0.3,1.2,0.3l0,0c0,0,0.9,0,2.4,0.2
		c1,0.1,2.2,0.3,3.5,0.5c-0.2,0.1-0.6,0.5-0.7,0.5c-0.1,0-0.1,0-0.1,0c0,0,0,0,0,0l0,0l0,0l0,0c0,0,0,0,0,0c0,0,0,0,0,0l0-0.2
		c0-0.1,0-0.2-0.2-0.3c-0.1,0-0.2-0.1-0.3,0c-0.1,0-0.3,0.2-0.4,0.4c-0.2,0.2-0.1,0.6-0.1,0.9c0,0.1,0.1,0.2,0.1,0.3l0,0.1
		c0,0.1,0,0,0,0.1l0,0.1c0,0.1,0,0.3,0.1,0.4c-0.2,0.1-0.3,0.2-0.5,0.3c-3.5-1.4-6.6-2.4-6.6-2.4c-0.3-0.1-0.9-0.2-1.4-0.2
		c-0.8,0.1-1.4,0.4-1.6,0.8c-0.3,0.4-0.3,0.9-0.1,1.4c0.4,0.8,1.2,1.4,2.3,1.6l0,0c0,0,0,0,0.1,0c-0.1,0.2-0.2,0.4-0.2,0.6
		c0,0.8,0.6,1.7,1.5,2.2c-0.6-0.2-1-0.3-1-0.3c-0.2-0.1-0.6-0.1-1-0.1c-1,0.1-1.5,0.9-1.2,1.6c0.2,0.6,1,1.1,1.8,1.1l0,0
		c0,0,1.2,0.1,2.8,0.2c-0.2,0.4-0.3,0.9-0.2,1.4c0.1,0.4,0.2,0.8,0.5,1.1c-0.3-0.1-0.6-0.3-0.9-0.4c-1-0.5-1.7-1-1.7-1
		c-0.2-0.1-0.5-0.3-0.9-0.4c-1-0.2-1.8,0.2-1.9,1c0,0.7,0.6,1.6,1.5,1.9l0,0c0,0,0.1,0,0.2,0.1c-0.5,0.1-0.8,0.5-0.8,1
		c0,0.7,0.6,1.4,1.4,1.7l0,0c0,0,0.8,0.3,1.9,0.7c1.1,0.4,2.7,0.7,4.2,0.9c0.5,0.5,1.1,0.8,1.8,0.9l0,0c0,0,0.1,0,0.3,0.1
		c0,0.1,0,0.2,0,0.3c-0.3-0.1-0.5-0.1-0.8-0.2c-4-0.9-7.9-2.2-7.9-2.2c-0.2-0.1-0.8-0.2-1.2-0.2c-0.7,0-0.8,0.4-1.2,0.6
		c-0.4,0.2-0.8,0.5-0.7,1.2c0,0.5,0.6,1,1,1.3c0.4,0.3,0.9,0.5,1.4,0.5c-0.7,0.5-0.9,1.2-0.5,1.8c0.4,0.7,1.4,1.1,2.4,1l0,0l1.1-0.1
		c-0.1,0.4,0,0.8,0.3,1.1c0.5,0.7,1.5,0.9,2.4,0.6l0,0c0,0,0.7-0.2,1.7-0.6c-0.3,0.4-0.5,0.8-0.5,1.3c-1.2-0.2-2.4-0.4-3.3-0.7
		c-0.8-0.2-1.4-0.4-1.8-0.6c-0.4-0.2-0.7-0.3-0.7-0.3c-0.2-0.1-0.9-0.3-1.1-0.2c-0.1,0-0.2,0.1-0.3,0.1c-0.1,0-0.2,0.1-0.4,0.1h0
		c-0.2,0-0.2,0.2-0.4,0.3c-0.1,0.1-0.2,0.2-0.4,0.3c-0.2,0.1-0.4,0.2-0.7,0.3c-0.2,0.1-0.3,0.2-0.4,0.3l0,0c0,0.3,0.1,0.6,0.2,0.9
		c0.2,0.3,0.5,0.6,0.8,0.8c0.6,0.4,1,0.6,1.5,0.7l0,0c0,0,1.2,0.2,3,0.4c0.7,0.1,1.6,0.1,2.4,0.1c0,0.2,0.1,0.4,0.2,0.6
		c0,0.1,0.1,0.1,0.1,0.2c-0.5-0.1-0.8-0.2-0.8-0.2c-0.2-0.1-0.8-0.1-1.2,0c-0.9,0.2-1.5,0.8-1.6,1.5c-0.8-0.5-1.3-0.8-1.3-0.8
		c-0.2-0.2-0.8-0.4-1.3-0.5c-0.2,0-0.4-0.1-0.5-0.1c-0.1,0-0.2,0-0.3,0l-0.1,0l-0.1,0l0,0l0,0l0,0l0,0c0-0.1-0.1,0.2-0.2,0.4
		c0,0,0,0,0,0c-0.1,0.1-0.3,0.2-0.4,0.2c-0.3,0.1-0.1,0.1-0.5-0.1c-0.1,0-0.3,0-0.4,0.1c-0.1,0.1-0.2,0.3-0.3,0.6
		c0,0.4,0,0.8,0.4,1.2c0.1,0.2,0.2,0.5,0.4,0.7c0.4,0.4,0.9,0.8,1.5,1.1l0,0c0,0,1.2,0.4,2.9,1c1,0.3,2.1,0.6,3.4,0.9
		c-0.3,0.3-0.7,0.5-1,0.7c-0.1,0-0.1,0-0.1,0c-0.3-0.1-0.9-0.3-1.4-0.3c-1.5-0.1-2.5,0.8-2.4,2c0.1,0.5,0.4,1,0.9,1.4
		c-0.2,0.4-0.4,1.1-0.4,1.7c0,0.2,0,0.3,0,0.4c0,0.1,0.1,0.2,0.1,0.3l0.1,0.1l0,0.1l0,0l0,0.1l0,0l0,0l0,0l0,0l0,0
		c0,0.1,0.1,0.2,0.2,0.3c0.2,0.3,0.4,0.5,0.6,0.6c-0.8,0.4-1.2,1-1,1.8c0.3,0.9,1.4,1.6,2.6,1.6l0,0c0,0,0.1,0,0.2,0
		c-0.1,0.6,0.2,1.2,0.8,1.3c0.7,0.2,1.5-0.1,2-0.7l0,0c0,0,0.4-0.4,0.9-0.9c0.4-0.1,0.8-0.1,1.2-0.2c0.2,0,0.5,0,0.7,0
		c0.4-0.1,0.8-0.2,1.2-0.4c0.4-0.1,0.7-0.2,1.1-0.3c-0.3,0.5-0.6,1-0.9,1.4c-0.2,0.2-0.4,0.3-0.6,0.5c-0.8,0.7-1.5,1.5-2.2,2.3
		c-1,0-1.6,0-1.6,0c-0.2,0-0.7,0-1.1,0.1c-1.1,0.3-1.6,1.2-1.2,2.1c0.3,0.6,1.1,0.9,1.9,1c-0.1,0.3-0.2,0.6-0.3,0.9
		c-0.2,0.5-0.2,0.8-0.2,0.8c-0.1,0.3-0.1,1,0,1.5c0.2,0.7,0.7,1.2,1.1,1.3c0.4,0.1,0.9,0,1.2-0.4c0.6-0.5,0.9-1.2,0.9-2l0,0
		c0,0,0-0.5,0.2-1.4c0.4,0.7,1,1.1,1.7,1.2c0,0-0.1,0.1-0.1,0.1c-0.9,1.2-1.4,2.1-1.4,2.1c-0.1,0.2-0.4,0.7-0.4,1.2
		c-0.1,0.4,0,0.7,0.1,1l0,1c0.4,0.4,0.8,0.4,1,0.3c0.2-0.1,0.3-0.3,0.3-0.4c0-0.2,0-0.3-0.1-0.5c0,0,0,0,0-0.1l0.6,0.5
		c0.6-0.3,1.2-0.9,1.5-1.6l0,0c0,0,0.3-0.9,0.9-2.2c0.1-0.1,0.1-0.3,0.2-0.4c0,0.1,0,0.2,0,0.2c-0.1,1.6,0.9,2.5,2.1,2.4
		c0,0,0,0,0,0c0,0,0,0-0.1,0c-1.3,0.6-2.1,0.9-2.1,0.9c-0.2,0.1-0.7,0.3-1,0.6c-0.9,0.8-1.1,1.9-0.3,2.5c0.3,0.2,0.7,0.3,1.2,0.4
		c0,0.1,0,0.1,0,0.1c-0.2,0.3-0.3,0.9-0.3,1.5c0,1.5,1.1,2.3,2.1,2c0.9-0.3,1.6-1.2,1.8-2.3l0,0c0,0,0.2-1,0.6-2.6
		c0.1-0.4,0.3-0.9,0.4-1.4c0.5-0.4,1-0.9,1.5-1.3c-0.1,0.2-0.2,0.5-0.2,0.7c0,0.2,0,0.4,0,0.6c-0.1,0.1-0.2,0.1-0.2,0.1
		c-0.3,0.1-0.8,0.5-1.1,0.9c-0.9,1.1-0.8,2.5,0.3,3.2c0.2,0.1,0.4,0.2,0.6,0.2c-1.1,0.6-1.8,0.9-1.8,0.9c-0.2,0-0.5,0.2-0.8,0.4
		c-0.1,0.1-0.1,0.1-0.2,0.2c0,0-0.1,0.1-0.1,0.1l0,0l0,0l0,0l0,0l0,0l0,0c0,0.1,0,0.1,0.1,0.2c0,0.1,0,0.1,0,0.2
		c0,0.1-0.1,0.3-0.1,0.3c0.1,0.1-0.8,0.2-0.4,0.9c0.2,0.2,0.4,0.4,0.8,0.5c0.1,0,0.1,0,0.2,0l0.1,0c0.1,0,0.1,0,0.1,0.1
		c0.1,0,0.3,0,0.4,0c0.5,0,1.1-0.1,1.6-0.4l0,0c0,0,0.9-0.5,1.9-1.5c0,1.1,0.7,1.8,1.7,1.8c-0.1,0-0.1,0.1-0.2,0.1
		c-0.5,0.3-0.7,0.4-0.7,0.4c-0.3,0.1-0.7,0.4-1,0.7c-0.4,0.4-0.7,0.9-0.8,1.5c-0.1,0.5-0.2,1.1,0.3,1.6c0.4,0.4,1.1,0.6,1.8,0.5
		c0.3,0,0.5-0.1,0.7-0.2c-0.1,0.3-0.1,0.6-0.1,0.9c0.1,1.4,1.1,2,2,1.6c0.8-0.3,1.4-1.2,1.5-2.2l0,0c0,0,0-0.3,0.1-0.8
		c0.2,0.1,0.4,0.2,0.6,0.3c-0.6,1.2-1.1,2.3-1.5,3.3c-0.6,1.6-0.8,2.7-0.8,2.7c-0.1,0.3-0.1,0.9,0,1.4c0.3,1.4,1.3,1.9,2.3,1.4
		c0.5-0.2,0.8-0.7,1-1.2c0.8,0.8,1.8,0.7,2.5,0.1c0.7-0.7,1-1.9,0.8-3.1l0,0c0,0-0.1-0.3-0.2-0.8c-0.1-0.5-0.2-1.2-0.2-2.1
		c0-0.1,0-0.2,0-0.3c0.6,0.6,1.4,0.7,2,0.3c0.3-0.2,0.6-0.6,0.7-0.9c0,0.3,0,0.7,0,1c-0.5,1-1,1.9-1.3,2.8c-0.7,1.6-1,2.8-1,2.8
		c-0.1,0.3-0.2,1-0.1,1.5c0.3,1.5,1.3,2.1,2.3,1.6c0.4-0.2,0.7-0.5,0.9-0.8c0.9,1.3,2.2,1.4,3,0.6c0.7-0.8,0.9-2.1,0.5-3.2l0,0
		c0,0-0.1-0.2-0.2-0.7c0.2-0.1,0.3-0.3,0.4-0.5c0.4,0.6,1.1,0.9,1.8,0.7c0.4-0.1,0.8-0.4,1-0.7c0,0,0,0.1,0,0.1
		c-0.1,0.2-0.3,0.5-0.4,0.7c-1,1.6-1.8,2.4-1.8,2.4c-0.1,0.1-0.3,0.3-0.4,0.5c-0.1,0.2-0.2,0.4-0.2,0.6c-0.1,0.2-0.1,0.4,0,0.7
		c0,0.2-0.1,0.5-0.1,0.8c-0.1,0.5-0.2,1.2,0.4,1.7c0.2,0.2,0.6,0.4,1,0.4c0.4,0,0.9-0.1,1.3-0.3c0.9-0.4,1.5-1.1,1.8-1.7l0,0
		c0,0,0-0.1,0.1-0.2c0.8,0.6,1.7,0.6,2.3-0.1c0,0,0,0,0,0c0.6,0.6,1.4,0.7,2,0.2c0.7-0.5,0.9-1.4,0.7-2.3l0,0c0,0-0.3-1.2-0.7-3
		c0,0,0,0,0.1,0c0.1,0,0.3-0.1,0.4-0.2c0.2,1.4,0.5,2.8,0.8,3.9c-0.1,0.1-0.1,0.2-0.2,0.3c-0.8,1.2-1.4,1.9-1.4,1.9
		c-0.2,0.2-0.4,0.6-0.5,1.1c-0.4,1.2,0.1,2.2,1.1,2.3c0.8,0.1,1.7-0.5,2.2-1.4c0.2,0.6,0.3,0.9,0.3,0.9c0.1,0.4,0.5,1.2,1,1.7
		c1.3,1.5,3.1,1.6,4,0.3c0.3-0.4,0.5-1,0.5-1.6c0,0.4,0.1,0.9,0.2,1.3c0.5,1.6,1.8,2.3,3,1.6c0.4-0.2,0.7-0.6,1-1.1
		c0,0,0,0.1,0.1,0.1c0.9,1.5,2.4,1.9,3.3,0.9c0.3-0.3,0.5-0.6,0.6-1.1c0.2,0.1,0.4,0.1,0.5,0.1c0,0,0,0,0,0c0,0.2,0,0.4,0,0.5
		c0.2,1.4,1.3,2.1,2.3,1.7c0.9-0.4,1.5-1.4,1.5-2.6l0,0c0,0,0.1-2.6,0.3-5.8c0,1.7,0.2,3.4,0.4,4.7c0.2,1.4,0.5,2.3,0.5,2.3
		c0,0.2,0.3,0.7,0.5,1.1c0.8,1,1.8,1,2.3,0.3c0.4-0.6,0.5-1.6,0.1-2.4l0,0c0,0-0.4-0.8-0.9-2c-0.1-0.3-0.2-0.6-0.4-1
		c0.1,0,0.2-0.1,0.2-0.1c0.7-0.5,1.1-1.5,0.9-2.4l0,0c0,0-0.2-1.1-0.5-2.8c0,0,0,0.1,0.1,0.1c0.2,0.4,0.4,0.7,0.6,0.9
		c0,1.1,0,2.2,0.1,3.1c0.1,1.4,0.3,2.4,0.3,2.4c0,0.3,0.2,0.8,0.6,1.2c0.4,0.5,1,0.8,1.4,0.7c0.4,0,0.7-0.3,0.9-0.7
		c0.2-0.5,0.3-1,0.2-1.5c0.1,0.3,0.1,0.6,0.2,0.8c0.2,1,0.4,1.8,0.5,2.4c0.1,0.6,0.2,1,0.2,1c0.1,0.4,0.4,1.2,0.8,1.7
		c0.6,0.8,1.4,1.1,2,1.1c0.6,0,1.1-0.4,1.4-1c0.5-1,0.5-2.1,0-3.2l0,0c0,0-0.1-0.3-0.4-0.8c-0.2-0.5-0.6-1.3-1-2.2
		c-0.8-1.8-1.8-4.2-2.6-6.7c0,0,0-0.1,0-0.1c0,0,0-0.1,0-0.1c0,0.1,0.1,0.2,0.1,0.3c0.8,2,1.7,3.9,2.5,5.3c0.8,1.4,1.4,2.4,1.4,2.4
		c0.1,0.2,0.6,0.7,1.1,1c1.3,0.7,2.4,0.1,2.5-0.9c0-0.1,0-0.2,0-0.2c0.5,0.1,1.1,0,1.5-0.4c0.3-0.3,0.4-0.6,0.5-1
		c0.1,0.2,0.2,0.4,0.3,0.5c0.8,1.1,2,1.3,2.7,0.4c0.6-0.7,0.6-1.9,0.2-2.8l0,0c0,0-0.3-0.6-0.7-1.5c0.2-0.1,0.3-0.2,0.4-0.3
		c0.4-0.4,0.6-1.1,0.5-1.7c0.1,0.2,0.2,0.3,0.2,0.5c0.5,0.9,0.9,1.7,1.2,2.2c0.3,0.5,0.5,0.8,0.5,0.8c0.2,0.3,0.8,1,1.4,1.3
		c0.9,0.5,1.7,0.5,2.3,0.3c0,0,0,0,0,0c0.6,0.6,1.5,0.7,2.2,0.2c0.9-0.6,1.4-2.2,1.1-3.6c0.8,0,1.5-0.4,1.8-1.1
		c0.5-1.1,0.2-2.6-0.6-3.8l0,0c0,0-0.9-1.1-2-2.8c0-0.1-0.1-0.2-0.2-0.2c1,1,2.3,0.9,3,0l1.2,1.2c-0.2,1-0.3,2-0.4,2.9
		c-0.1,0.6-0.2,1.2-0.2,1.6c-0.1,0.4-0.1,0.7-0.1,0.7c0,0.3,0,0.9,0.3,1.4c0.4,0.7,1.1,1.1,1.5,0.9c0.4-0.1,0.6-0.5,0.7-0.9
		c0.1-0.3,0.3-0.5,0.4-0.7c0.1-0.2,0.1-0.5,0.1-0.8l0,0c0,0,0,0,0-0.1c0-0.1,0-0.2,0-0.4c0-0.4-0.1-0.9-0.1-1.6c0-0.3,0-0.6-0.1-0.9
		l1.6,1.7c0.2,0.2,0.7,0.6,1.2,0.8c1.2,0.5,2.3,0.2,2.7-0.7c0.7,0.6,1.5,0.8,2.2,0.2c0.7-0.6,0.7-2.1,0.1-3.1l0,0
		c0,0-0.3-0.5-0.8-1.2c1,0.5,1.9,0.2,2.3-0.6c0.4-0.9,0.1-2.1-0.6-2.9l0,0c0,0-0.7-0.8-1.7-2.2c-0.6-0.8-1.2-1.7-1.9-2.7
		c0.3-0.1,0.6-0.2,0.8-0.5c0.1-0.2,0.2-0.4,0.3-0.7c0.8,1.3,1.7,2.5,2.4,3.5c0.5,0.8,1,1.4,1.4,1.9c0.4,0.5,0.6,0.7,0.6,0.7
		c0.2,0.3,0.9,0.8,1.5,1.1c0.9,0.4,1.7,0.3,2.2-0.1c0.5-0.4,0.6-0.9,0.6-1.5c0-0.2-0.1-0.3-0.1-0.5c0.1,0,0.1,0.1,0.2,0.1
		c1,0.3,2,0,2.2-0.4c0.3-0.5,0.2-1,0-1.5c-0.1-0.4-0.2-0.8-0.4-1.1c-0.1-0.3-0.4-0.6-0.8-0.9l0,0c0,0-0.2-0.1-0.5-0.4
		c0.4,0.1,0.8,0.2,1.2,0.3c0.6,0.1,1,0.2,1,0.2c0.4,0.1,1.2,0.1,1.8-0.1c1.7-0.5,2.2-1.7,1.7-2.8c1.4,0.2,2.6-0.5,2.8-1.8
		c0.1-1.2-1-2.7-2.4-3.3l0,0c0,0-1.3-0.6-3.3-1.5c-1.5-0.7-3.3-1.6-5.3-2.6c0,0,0-0.1,0-0.1c0.1,0,0.2,0,0.2,0
		c0.3,0.1,0.9,0,1.4-0.1c1.4-0.5,1.7-1.8,1.1-2.7c-0.3-0.4-0.6-0.7-1-0.9c0-0.1-0.1-0.2-0.1-0.3c-0.2-0.5-0.6-1.1-1.1-1.4l0,0
		l-6.1-5.1l0.3,0.1c1.2,0.9,2.4,1.6,3.4,2.2c0.5,0.3,1,0.6,1.3,0.8c0.7,0.9,1.5,2,2.2,3c1.4,1.8,2.9,3.6,4,5c1.1,1.3,2,2.2,2,2.2
		c0.2,0.2,0.7,0.7,1.2,0.9c0.3,0.2,0.7,0.2,1,0.2c0.2,0,0.3,0,0.4,0c0.2,0,0.4,0.1,0.8,0c0.1,0,0.2,0,0.2-0.1c0,0,0.1-0.1,0.1-0.1
		c0,0,0,0,0-0.1c0.2-0.2,0.2-0.3,0.1-0.4c-0.1-0.2-0.2-0.1-0.4-0.1c0,0,0,0,0,0l0,0l0,0l0,0l0,0c0,0,0,0,0,0c0,0,0-0.1,0.1-0.2
		c0-0.1,0.1-0.2,0.3-0.4c0,0,0,0,0.1-0.1l0,0l0,0l0-0.1c0-0.1,0-0.2,0-0.4c-0.1-0.3-0.1-0.5-0.3-0.7c-0.2-0.5-0.6-0.9-1.1-1.2l0,0
		c0,0-0.9-0.6-2.1-1.5c0.8,0.1,1.4-0.3,1.6-1.1c0.1-0.4,0.1-0.9,0-1.3c1,0.9,1.7,1.5,1.7,1.5c0.2,0.2,0.8,0.6,1.3,0.8
		c1.5,0.5,2.7-0.1,2.8-1.3c0.1-1-0.6-2.2-1.7-2.8l0,0c0,0-4.2-2.4-8.4-4.8c0.1-0.1,0.2-0.3,0.2-0.4c0.2-0.5,0-0.9-0.3-1.3
		c-0.5-0.7-1-1.1-1.8-1.2l0,0c0,0-0.3-0.1-0.9-0.3c-0.2-0.5-0.6-0.9-1.1-1.1l0,0c0,0-1.5-0.9-3.5-2.1c0.7,0.2,1.4,0.4,2.1,0.6
		c0.4,0.3,0.8,0.6,1.2,0.9c0.7,0.5,1.5,0.9,2,1.1c0.1,0.1,0.2,0.1,0.3,0.1c0.5,0.6,1,1.2,1.6,1.7c1.4,1.4,3.2,2.7,4.8,3.3
		c0.8,0.3,1.5,0.5,2,0.6c0.5,0.1,0.8,0.1,0.8,0.1c0.3,0.1,1,0,1.4-0.2c0.7-0.3,1.1-0.7,1.2-1.2c0.1-0.4-0.1-0.9-0.4-1.2
		c-0.6-0.6-1.4-0.8-2.1-0.8l0,0c0,0-0.2,0-0.6,0c-0.4,0-0.9,0-1.5-0.1c-1.3-0.2-3-0.9-4.6-1.9c-0.1,0-0.1-0.1-0.2-0.1
		c0.2,0,0.3-0.1,0.4-0.1c0.1,0,0.3,0.1,0.4,0.1c2.6,0.8,5.4,1.3,7.5,1.5c2.1,0.2,3.5,0.2,3.5,0.2c0.3,0,1.2-0.1,1.7-0.3
		c1.6-0.7,2-2.2,1.2-3.2c-0.7-0.8-2.1-1.2-3.3-0.9l0,0c0,0-0.9,0.2-2.3,0.4c0-0.1,0.1-0.1,0.1-0.2c0.1-0.2,0.1-0.5,0.1-0.7
		c0-0.2-0.1-0.3-0.2-0.5c-0.1-0.1-0.1-0.3-0.1-0.4c0-0.1,0-0.1,0-0.2c0-0.1-0.1-0.1-0.2-0.2c1,0.1,1.7,0.1,1.7,0.1
		c0.1,0,0.2,0,0.4,0c0.2,0.2,0.4,0.4,0.7,0.6c0.7,0.5,1.5,0.8,2.1,0.7c0.6-0.1,1-0.6,1.3-1.2c0.2-0.5,0.2-1.1,0.1-1.7
		c-0.1-0.6-0.5-1.3-1.2-1.9l0,0c0,0-0.2-0.2-0.7-0.6c0.1-0.1,0.2-0.3,0.3-0.4c0.1,0,0.3,0,0.4,0c0.5,0,0.8,0,0.8,0
		c0.3,0,1-0.1,1.4-0.4C-171.7,473.4-171.3,472.1-172,471.2z"/>
</g>
</svg>
