<?xml version="1.0" encoding="UTF-8" standalone="no"?>
<svg width="800px" height="356px" viewBox="0 0 800 356" version="1.1" xmlns="http://www.w3.org/2000/svg" xmlns:xlink="http://www.w3.org/1999/xlink" xmlns:sketch="http://www.bohemiancoding.com/sketch/ns">
    <!-- Generator: Sketch 3.3.3 (12072) - http://www.bohemiancoding.com/sketch -->
    <title>bowen_slouch</title>
    <desc>Created with Sketch.</desc>
    <defs></defs>
    <g id="Page-1" stroke="none" stroke-width="1" fill="none" fill-rule="evenodd" sketch:type="MSPage">
        <g id="bowen_slouch" sketch:type="MSLayerGroup" fill="#15293D">
            <g id="Page-1" sketch:type="MSShapeGroup">
                <g id="group1">
                    <rect id="Rectangle-path" x="0" y="0.5" width="800" height="355"></rect>
                </g>
            </g>
        </g>
    </g>
</svg>